[API] ✅ RESPONSE DETAILS:
[API] STATUS CODE: 200
[API] DATA: "{\"data\":[{\"id\":\"319ff078-af5d-4db2-8029-321655ad4b1d\",\"title\":\"kemis birthday\",\"description\":\"for the time\",\"target\":1200000,\"currentAmount\":0,\"startDate\":\"2026-03-17T23:00:00.000Z\",\"endDate\":\"2026-03-24T23:00:00.000Z\",\"offers\":[],\"budget\":[{\"cost\":120000,\"item\":\"tuition\",\"image\":\"\"}],\"images\":[{\"imageUrl\":\"https://res.cloudinary.com/de4h8m6r3/image/upload/v1773655846/greyfundr/campaigns/g13vvvtidh3d1npxwusn.jpg\",\"providerId\":\"greyfundr/campaigns/g13vvvtidh3d1npxwusn\"}],\"status\":\"active\",\"shareSlug\":\"ciWGyq_GQdrb\",\"shareUrl\":\"https://back-end-z3es.onrender.com/api/v1/campaigns/ciWGyq_GQdrb\",\"creator\":{\"id\":\"43ff17c1-25dd-482e-ad83-78fd6a87418f\",\"firstName\":\"Jolomi\",\"lastName\":\"Dudu\",\"username\":\"rigomy\"},\"createdAt\":\"2026-03-16T10:10:50.019Z\"},{\"id\":\"7a4a652e-b4e0-493b-8072-e8b907ebf84a\",\"title\":\"Support Borno Farmers\",\"description\":\"helping farmers get back on their feet\",\"target\":4500000,\"currentAmount\":28,\"startDate\":\"2026-03-16T23:00:00.000Z\",\"endDate\":\"2026-04-22T23:00:00.000Z\",\"offers\":[{\"type\":\"auto\",\"reward\":\"Signed thank you card\",\"condition\":\"Donate ₦20,000 or more\"}],\"budget\":[{\"cost\":40000,\"item\":\"tools\",\"image\":\"\"}],\"images\":[{\"imageUrl\":\"https://res.cloudinary.com/de4h8m6r3/image/upload/v1773321929/greyfundr/campaigns/ysgrtf1f1gk1jrvu0wiu.jpg\",\"providerId\":\"greyfundr/campaigns/ysgrtf1f1gk1jrvu0wiu\"}],\"status\":\"active\",\"shareSlug\":\"M_Qjfp8YfRoO\",\"shareUrl\":\"https://back-end-z3es.onrender.com/api/v1/campaigns/M_Qjfp8YfRoO\",\"creator\":{\"id\":\"43ff17c1-25dd-482e-ad83-78fd6a87418f\",\"firstName\":\"Jolomi\",\"lastName\":\"Dudu\",\"username\":\"rigomy\"},\"createdAt\":\"2026-03-12T13:25:31.862Z\"},{\"id\":\"ea07308c-161b-41d2-b615-8e29cd9d7f9f\",\"title\":\"Faruq orpahange\",\"description\":\"Please donate to my orphanage so I can feed all my 50 kids\",\"target\":10000000,\"currentAmount\":0,\"startDate\":\"2026-03-11T23:00:00.000Z\",\"endDate\":\"2026-03-30T23:00:00.000Z\",\"offers\":[],\"budget\":[],\"images\":[{\"imageUrl\":\"https://res.cloudinary.com/de4h8m6r3/image/upload/v1773320948/greyfundr/campaigns/mxyylyfk7frzhg46kr9l.jpg\",\"providerId\":\"greyfundr/campaigns/mxyylyfk7frzhg46kr9l\"},{\"imageUrl\":\"https://res.cloudinary.com/de4h8m6r3/image/upload/v1773320948/greyfundr/campaigns/t7v5ndfgxlleoztyv4bx.jpg\",\"providerId\":\"greyfundr/campaigns/t7v5ndfgxlleoztyv4bx\"}],\"status\":\"active\",\"shareSlug\":\"z0RERPw8Daw-\",\"shareUrl\":\"https://back-end-z3es.onrender.com/api/v1/campaigns/z0RERPw8Daw-\",\"creator\":{\"id\":\"43ff17c1-25dd-482e-ad83-78fd6a87418f\",\"firstName\":\"Jolomi\",\"lastName\":\"Dudu\",\"username\":\"rigomy\"},\"createdAt\":\"2026-03-12T13:09:12.678Z\"},{\"id\":\"38cbac6c-74b0-45f3-bc4a-f4d3d20483f2\",\"title\":\"teacher needs\",\"description\":\"support the wages for teachers in public schools\",\"target\":450000,\"currentAmount\":0,\"startDate\":\"2026-03-16T23:00:00.000Z\",\"endDate\":\"2026-03-30T23:00:00.000Z\",\"offers\":[{\"type\":\"auto\",\"reward\":\"Signed thank you card\",\"condition\":\"Donate ₦20,000 or more\"}],\"budget\":[{\"cost\":120000,\"item\":\"core\",\"image\":\"\"}],\"images\":[],\"status\":\"active\",\"shareSlug\":\"3nmPhQqCvcud\",\"shareUrl\":\"https://back-end-z3es.onrender.com/api/v1/campaigns/3nmPhQqCvcud\",\"creator\":{\"id\":\"43ff17c1-25dd-482e-ad83-78fd6a87418f\",\"firstName\":\"Jolomi\",\"lastName\":\"Dudu\",\"username\":\"rigomy\"},\"createdAt\":\"2026-03-12T12:17:41.919Z\"},{\"id\":\"2ddd4f4b-c9ab-4525-8950-988f2f8b1a7e\",\"title\":\"Yemen Support\",\"description\":\"support for people in yeme\",\"target\":400000,\"currentAmount\":0,\"startDate\":\"2026-03-16T23:00:00.000Z\",\"endDate\":\"2026-03-30T23:00:00.000Z\",\"offers\":[{\"type\":\"auto\",\"reward\":\"Signed thank you card\",\"condition\":\"Donate ₦20,000 or more\"}],\"budget\":[{\"cost\":34000,\"item\":\"gracing\",\"image\":\"\"}],\"images\":[],\"status\":\"active\",\"shareSlug\":\"xrIMgERz2Dha\",\"shareUrl\":\"https://back-end-z3es.onrender.com/api/v1/campaigns/xrIMgERz2Dha\",\"creator\":{\"id\":\"43ff17c1-25dd-482e-ad83-78fd6a87418f\",\"firstName\":\"Jolomi\",\"lastName\":\"Dudu\",\"username\":\"rigomy\"},\"createdAt\":\"2026-03-12T12:11:20.211Z\"},{\"id\":\"d82d3335-0cfc-420a-ac2f-63963e5f0d9e\",\"title\":\"Faruq Charity\",\"description\":\"Donate so I can feed my 8 children\",\"target\":10000000,\"currentAmount\":0,\"startDate\":\"2026-03-11T23:00:00.000Z\",\"endDate\":\"2026-03-30T23:00:00.000Z\",\"offers\":[],\"budget\":[],\"images\":[],\"status\":\"active\",\"shareSlug\":\"P5ohAY9E2xBp\",\"shareUrl\":\"https://back-end-z3es.onrender.com/api/v1/campaigns/P5ohAY9E2xBp\",\"creator\":{\"id\":\"43ff17c1-25dd-482e-ad83-78fd6a87418f\",\"firstName\":\"Jolomi\",\"lastName\":\"Dudu\",\"username\":\"rigomy\"},\"createdAt\":\"2026-03-12T12:01:59.070Z\"},{\"id\":\"6d798b37-2f4a-49a5-9b37-7e1983ab8bb1\",\"title\":\"Sam's Burial\",\"description\":\"support for sam\",\"target\":340000,\"currentAmount\":0,\"startDate\":\"2026-03-22T23:00:00.000Z\",\"endDate\":\"2026-03-29T23:00:00.000Z\",\"offers\":[{\"type\":\"manual\",\"reward\":\"win trip tickets to dubai\",\"condition\":\"donate 30k\"}],\"budget\":[{\"cost\":23000,\"item\":\"krop\",\"image\":\"\"}],\"images\":[],\"status\":\"active\",\"shareSlug\":\"VZSS_plwV23N\",\"shareUrl\":\"https://back-end-z3es.onrender.com/api/v1/campaigns/VZSS_plwV23N\",\"creator\":{\"id\":\"43ff17c1-25dd-482e-ad83-78fd6a87418f\",\"firstName\":\"Jolomi\",\"lastName\":\"Dudu\",\"username\":\"rigomy\"},\"createdAt\":\"2026-03-12T11:22:45.451Z\"},{\"id\":\"7a53e2a3-10fe-4e64-8d58-3be9f1474fef\",\"title\":\"seguns car\",\"description\":\"he needs a new car for his business\",\"target\":23000000,\"currentAmount\":0,\"startDate\":\"2026-03-17T23:00:00.000Z\",\"endDate\":\"2026-03-30T23:00:00.000Z\",\"offers\":[],\"budget\":[{\"cost\":2300000,\"item\":\"bus\",\"image\":\"\"}],\"images\":[],\"status\":\"active\",\"shareSlug\":\"ahXeRb4Uda3l\",\"shareUrl\":\"https://back-end-z3es.onrender.com/api/v1/campaigns/ahXeRb4Uda3l\",\"creator\":{\"id\":\"43ff17c1-25dd-482e-ad83-78fd6a87418f\",\"firstName\":\"Jolomi\",\"lastName\":\"Dudu\",\"username\":\"rigomy\"},\"createdAt\":\"2026-03-12T10:41:01.869Z\"},{\"id\":\"6abad63f-42c8-47ed-b5fe-97d12a2d9f64\",\"title\":\"demsy\",\"description\":\"for the love it shows\",\"target\":230000,\"currentAmount\":0,\"startDate\":\"2026-03-16T23:00:00.000Z\",\"endDate\":\"2026-03-23T23:00:00.000Z\",\"offers\":[],\"budget\":[{\"cost\":24000,\"item\":\"drips\",\"image\":\"\"}],\"images\":[],\"status\":\"active\",\"shareSlug\":\"ka1N2-4gtgjF\",\"shareUrl\":\"https://back-end-z3es.onrender.com/api/v1/campaigns/ka1N2-4gtgjF\",\"creator\":{\"id\":\"43ff17c1-25dd-482e-ad83-78fd6a87418f\",\"firstName\":\"Jolomi\",\"lastName\":\"Dudu\",\"username\":\"rigomy\"},\"createdAt\":\"2026-03-12T09:44:08.098Z\"},{\"id\":\"8cb8f071-d9bb-4959-a872-925d79ed427b\",\"title\":\"darker\",\"description\":\"for fetching\",\"target\":200000,\"currentAmount\":0,\"startDate\":\"2026-03-15T23:00:00.000Z\",\"endDate\":\"2026-03-23T23:00:00.000Z\",\"offers\":[],\"budget\":[{\"cost\":40000,\"item\":\"fans\",\"image\":\"\"}],\"images\":[],\"status\":\"active\",\"shareSlug\":\"c3db6PKppmKA\",\"shareUrl\":\"https://back-end-z3es.onrender.com/api/v1/campaigns/c3db6PKppmKA\",\"creator\":{\"id\":\"43ff17c1-25dd-482e-ad83-78fd6a87418f\",\"firstName\":\"Jolomi\",\"lastName\":\"Dudu\",\"username\":\"rigomy\"},\"createdAt\":\"2026-03-12T09:39:08.939Z\"}],\"pagination\":{\"page\":1,\"limit\":10,\"total\":16,\"totalPages\":2,\"hasNext\":true,\"hasPrevious\":false}}"